^D:\REALLUSION_TDD\TENNIS\TDD_ACCOUNTING\ACCOUNTING\ACCOUNTINGTEST\SRC\ACCOUNTINGTEST.CPP
/c /I..\..\inc /I..\inc /Zi /nologo /W3 /WX- /sdl /Od /D WIN32 /D _DEBUG /D _CONSOLE /D _LIB /D _UNICODE /D UNICODE /Gm /EHsc /RTC1 /MDd /GS /Zc:wchar_t /Zc:forScope /Fo"X64\DEBUG\\" /Fd"X64\DEBUG\VC120.PDB" /Gd /TP D:\REALLUSION_TDD\TENNIS\TDD_ACCOUNTING\ACCOUNTING\ACCOUNTINGTEST\SRC\ACCOUNTINGTEST.CPP
^D:\REALLUSION_TDD\TENNIS\TDD_ACCOUNTING\ACCOUNTING\ACCOUNTINGTEST\SRC\TENNISTEST.CPP
/c /I..\..\inc /I..\inc /Zi /nologo /W3 /WX- /sdl /Od /D WIN32 /D _DEBUG /D _CONSOLE /D _LIB /D _UNICODE /D UNICODE /Gm /EHsc /RTC1 /MDd /GS /Zc:wchar_t /Zc:forScope /Fo"X64\DEBUG\\" /Fd"X64\DEBUG\VC120.PDB" /Gd /TP D:\REALLUSION_TDD\TENNIS\TDD_ACCOUNTING\ACCOUNTING\ACCOUNTINGTEST\SRC\TENNISTEST.CPP
